Regex
…
After using unnest_tokens, weve split each row so that there is one token (word) in each row of the new data frame; the default tokenization in unnest_tokens() is for single words (unigram), as shown here. Also notice:

Other columns, such as the line number each word came from, are retained.

Punctuation has been stripped.

By default, unnest_tokens() converts the tokens to lowercase, which makes them easier to compare or combine with other datasets. (Use the to_lower = FALSE argument to turn off this behavior).

Often in text analysis, we will want to remove stop words; stop words are words that are not useful for an analysis, typically extremely common words such as the, of, to, and so forth in English.

data(stop_words)
stop_words

## # A tibble: 1,149 x 2
##    word        lexicon
##    <chr>       <chr>  
##  1 a           SMART  
##  2 a's         SMART  
##  3 able        SMART  
##  4 about       SMART  
##  5 above       SMART  
##  6 according   SMART  
##  7 accordingly SMART  
##  8 across      SMART  
##  9 actually    SMART  
## 10 after       SMART  
## #  with 1,139 more rows
…
## Joining, by = "word"

Use relative frequencies

(news_propotions <- news_tokens %>% 
  group_by(id) %>% 
  mutate(propotion = n / sum(n)) %>% 
  select(-n) %>%
  arrange(id, desc(propotion)))

## # A tibble: 7,642 x 3
## # Groups:   id [32]
##    id    word         propotion
##    <chr> <chr>            <dbl>
##  1 01    call            0.0379
##  2 01    trump           0.0337
##  3 01    watson          0.0253
##  4 01    recording       0.0211
##  5 01    news            0.0147
##  6 01    abc             0.0126
##  7 01    georgia         0.0126
##  8 01    audio           0.0105
##  9 01    election        0.0105
## 10 01    investigator    0.0105
## #  with 7,632 more rows
…
The tidytext package contains several sentiment lexicons. Three general-purpose lexicons are

AFINN from Finn rup Nielsen,

bing from Bing Liu and collaborators, and

nrc from Saif Mohammad and Peter Turney.

All three of these lexicons are based on unigrams, i.e., single words. These lexicons contain many English words and the words are assigned scores for positive/negative sentiment, and also possibly emotions like joy, anger, sadness, and so forth. It is important to keep in mind that these methods do not take into account qualifiers before a word, such as in no good or not true; a lexicon-based method like this is based on unigrams only.

library(textdata)

get_sentiments("afinn")

## # A tibble: 2,477 x 2
##    word       value
##    <chr>      <dbl>
##  1 abandon       -2
##  2 abandoned     -2
##  3 abandons      -2
##  4 abducted      -2
##  5 abduction     -2
##  6 abductions    -2
##  7 abhor         -3
##  8 abhorred      -3
##  9 abhorrent     -3
## 10 abhors        -3
## #  with 2,467 more rows

get_sentiments("bing")

## # A tibble: 6,786 x 2
##    word        sentiment
##    <chr>       <chr>    
##  1 2-faces     negative 
##  2 abnormal    negative 
##  3 abolish     negative 
##  4 abominable  negative 
##  5 abominably  negative 
##  6 abominate   negative 
##  7 abomination negative 
##  8 abort       negative 
##  9 aborted     negative 
## 10 aborts      negative 
## #  with 6,776 more rows

get_sentiments("nrc")

## # A tibble: 13,901 x 2
##    word        sentiment
##    <chr>       <chr>    
##  1 abacus      trust    
##  2 abandon     fear     
##  3 abandon     negative 
##  4 abandon     sadness  
##  5 abandoned   anger    
##  6 abandoned   fear     
##  7 abandoned   negative 
##  8 abandoned   sadness  
##  9 abandonment anger    
## 10 abandonment fear     
## #  with 13,891 more rows
…
## Joining, by = "word"

## Joining, by = "id"

## # A tibble: 32 x 2
##    sentiment title                                             
##    <chr>     <chr>                                             
##  1 negative  WSJ obtains audio of Trump, Ga. investigator call 
##  2 negative  5 officers charged for killing robbery suspect    
##  3 negative  State approves near-total abortion ban            
##  4 positive  Merrick Garland confirmed as attorney general     
##  5 negative  Mexico lawmakers advance bill to legalize cannabis
##  6 negative  Suspect nabbed after Asian American man attacked  
##  7 netural   What's inside the COVID-19 bill passed by Congress
##  8 negative  FBI must tackle extremists in military: Raskin    
##  9 negative  Ghislaine Maxwell's 3rd quest for bail opposed    
## 10 negative  2 more jurors chosen for Derek Chauvin trial      
## #  with 22 more rows
…
\[
\text{tf_idf} = \text{tf} \times \text{idf}
\]

Show the 3 most important words in each document.

news_tokens %>% 
  bind_tf_idf(word, id, n) %>%
  slice_max(tf_idf, n = 3) %>%
  select(id, word, n, tf_idf)

## # A tibble: 101 x 4
## # Groups:   id [32]
##    id    word           n tf_idf
##    <chr> <chr>      <int>  <dbl>
##  1 01    watson        12 0.0876
##  2 01    call          18 0.0788
##  3 01    recording     10 0.0730
##  4 02    rodriguez     12 0.113 
##  5 02    officers      17 0.0771
##  6 02    oklahoma      10 0.0641
##  7 03    abortion      11 0.133 
##  8 03    abortions      4 0.0483
##  9 03    guttmacher     4 0.0483
## 10 03    hutchinson     4 0.0483
## #  with 91 more rows
…
## Joining, by = "id"

## # A tibble: 32 x 2
##    sentiment title                                             
##    <chr>     <chr>                                             
##  1 positive  WSJ obtains audio of Trump, Ga. investigator call 
##  2 negative  5 officers charged for killing robbery suspect    
##  3 negative  State approves near-total abortion ban            
##  4 positive  Merrick Garland confirmed as attorney general     
##  5 negative  Mexico lawmakers advance bill to legalize cannabis
##  6 negative  Suspect nabbed after Asian American man attacked  
##  7 positive  What's inside the COVID-19 bill passed by Congress
##  8 negative  FBI must tackle extremists in military: Raskin    
##  9 negative  Ghislaine Maxwell's 3rd quest for bail opposed    
## 10 negative  2 more jurors chosen for Derek Chauvin trial      
## #  with 22 more rows
…
We could use cutree to pick the number of groups.

tibble(topic = cutree(h, k = 3), title = news_df$title) %>% 
  arrange(topic) %>% 
  mutate(title = str_trunc(title, 80)) %>% 
  select(topic, title)

## # A tibble: 32 x 2
##    topic title                                             
##    <int> <chr>                                             
##  1     1 WSJ obtains audio of Trump, Ga. investigator call 
##  2     1 5 officers charged for killing robbery suspect    
##  3     1 State approves near-total abortion ban            
##  4     1 Merrick Garland confirmed as attorney general     
##  5     1 Mexico lawmakers advance bill to legalize cannabis
##  6     1 Suspect nabbed after Asian American man attacked  
##  7     1 FBI must tackle extremists in military: Raskin    
##  8     1 Ghislaine Maxwell's 3rd quest for bail opposed    
##  9     1 2 more jurors chosen for Derek Chauvin trial      
## 10     1 Paraplegic inmate denied shower for 5 months: Suit
## #  with 22 more rows
…
news_lda <- LDA(
  cast_dtm(news_tokens, id, word, n), 
  k = 4,
  control = list(seed = 1234))

Word-topic probabilities

The following table shows the probability of a specific term occurring in a topic.

tidy(news_lda, matrix = "beta") %>% 
  group_by(topic) %>% 
  top_n(10, beta) %>% 
  arrange(topic, desc(beta))

## # A tibble: 43 x 3
## # Groups:   topic [4]
##    topic term         beta
##    <int> <chr>       <dbl>
##  1     1 health    0.0104 
##  2     1 students  0.00898
##  3     1 water     0.00826
##  4     1 news      0.00575
##  5     1 utah      0.00539
##  6     1 prices    0.00503
##  7     1 colorado  0.00503
##  8     1 marijuana 0.00467
##  9     1 schools   0.00467
## 10     1 mental    0.00467
## #  with 33 more rows

Document-topic probabilities

The following table shows the probability of a specific topic occurring in a document.

# t is the variable `alpha` on the wikipedia page of LDA
tidy(news_lda, matrix = "gamma") %>%
    pivot_wider(names_from = topic, values_from = gamma)

## # A tibble: 32 x 5
##    document       `1`       `2`       `3`       `4`
##    <chr>        <dbl>     <dbl>     <dbl>     <dbl>
##  1 01       0.0000489 0.0000489 1.00      0.0000489
##  2 02       0.0000629 1.00      0.0000629 0.0000629
##  3 03       0.0000809 1.00      0.0000809 0.0000809
##  4 04       0.0000801 0.651     0.349     0.0000801
##  5 05       1.00      0.0000921 0.0000921 0.0000921
##  6 06       0.000195  0.999     0.000195  0.000195 
##  7 07       0.0000405 0.0000405 1.00      0.0000405
##  8 08       0.0000505 0.0000505 1.00      0.0000505
##  9 09       0.0000918 0.0000918 1.00      0.0000918
## 10 10       0.0000358 1.00      0.0000358 0.0000358
## #  with 22 more rows
…
CTM

Correlated topic model is an extension of LDA which supports correlations between topics.

news_ctm <- CTM(
  cast_dtm(news_tokens, id, word, n), 
  k = 4, 
  control = list(seed = 1234) )

tidy(news_ctm, matrix = "beta") %>% 
  group_by(topic) %>% 
  top_n(10, beta) %>% 
  arrange(topic, desc(beta))

## # A tibble: 40 x 3
## # Groups:   topic [4]
##    topic term           beta
##    <int> <chr>         <dbl>
##  1     1 water       0.0102 
##  2     1 bill        0.0102 
##  3     1 call        0.00801
##  4     1 trump       0.00713
##  5     1 billion     0.00668
##  6     1 utah        0.00668
##  7     1 news        0.00621
##  8     1 legislation 0.00579
##  9     1 river       0.00579
## 10     1 colorado    0.00534
## #  with 30 more rows
…
