Data Wrangling
…
First of all, we need some data to work with. If the data is stored in a csv,

flights <- read_csv("flights.csv")

We are using the tidyverse function read_csv to import the flights.csv instead of the obsolete base function read.csv. - read_csv imports data as tibble which has better and more consistent handling of variables. - read_csv is often faster than read.csv - read_csv handles unicode characters better

There are also read_tsv and read_delim for reading tab-seperated or delimited files.

The datasets are actually obtained from the R package nycflights13

# Airline on-time data for all flights departing NYC in 2013.
library(nycflights13)
flights

## # A tibble: 336,776 x 19
##     year month   day dep_time sched_dep_time dep_delay arr_time sched_arr_time
##    <int> <int> <int>    <int>          <int>     <dbl>    <int>          <int>
##  1  2013     1     1      517            515         2      830            819
##  2  2013     1     1      533            529         4      850            830
##  3  2013     1     1      542            540         2      923            850
##  4  2013     1     1      544            545        -1     1004           1022
##  5  2013     1     1      554            600        -6      812            837
##  6  2013     1     1      554            558        -4      740            728
##  7  2013     1     1      555            600        -5      913            854
##  8  2013     1     1      557            600        -3      709            723
##  9  2013     1     1      557            600        -3      838            846
## 10  2013     1     1      558            600        -2      753            745
## #  with 336,766 more rows, and 11 more variables: arr_delay <dbl>,
## #   carrier <chr>, flight <int>, tailnum <chr>, origin <chr>, dest <chr>,
## #   air_time <dbl>, distance <dbl>, hour <dbl>, minute <dbl>, time_hour <dttm>

select: picks variables based on their names.

To select arrival and departure times,

# old way to do it
# flights[, c("arr_time", "dep_time")]
flights %>% select(arr_time, dep_time)

## # A tibble: 336,776 x 2
##    arr_time dep_time
##       <int>    <int>
##  1      830      517
##  2      850      533
##  3      923      542
##  4     1004      544
##  5      812      554
##  6      740      554
##  7      913      555
##  8      709      557
##  9      838      557
## 10      753      558
## #  with 336,766 more rows

I dont see why its useful

dplyr provides a lot of helper functions,

# colon `:` specifies all the variables between the columns of `dep_time` and `arr_time`
flights %>% select(dep_time:arr_time)

## # A tibble: 336,776 x 4
##    dep_time sched_dep_time dep_delay arr_time
##       <int>          <int>     <dbl>    <int>
##  1      517            515         2      830
##  2      533            529         4      850
##  3      542            540         2      923
##  4      544            545        -1     1004
##  5      554            600        -6      812
##  6      554            558        -4      740
##  7      555            600        -5      913
##  8      557            600        -3      709
##  9      557            600        -3      838
## 10      558            600        -2      753
## #  with 336,766 more rows

# all the columns start with arr_
flights %>% select(starts_with("arr_"))

## # A tibble: 336,776 x 2
##    arr_time arr_delay
##       <int>     <dbl>
##  1      830        11
##  2      850        20
##  3      923        33
##  4     1004       -18
##  5      812       -25
##  6      740        12
##  7      913        19
##  8      709       -14
##  9      838        -8
## 10      753         8
## #  with 336,766 more rows

# all the columns end with _time
flights %>% select(ends_with("_time"))

## # A tibble: 336,776 x 5
##    dep_time sched_dep_time arr_time sched_arr_time air_time
##       <int>          <int>    <int>          <int>    <dbl>
##  1      517            515      830            819      227
##  2      533            529      850            830      227
##  3      542            540      923            850      160
##  4      544            545     1004           1022      183
##  5      554            600      812            837      116
##  6      554            558      740            728      150
##  7      555            600      913            854      158
##  8      557            600      709            723       53
##  9      557            600      838            846      140
## 10      558            600      753            745      138
## #  with 336,766 more rows

# all the columns contain dep
flights %>% select(contains("dep"))

## # A tibble: 336,776 x 3
##    dep_time sched_dep_time dep_delay
##       <int>          <int>     <dbl>
##  1      517            515         2
##  2      533            529         4
##  3      542            540         2
##  4      544            545        -1
##  5      554            600        -6
##  6      554            558        -4
##  7      555            600        -5
##  8      557            600        -3
##  9      557            600        -3
## 10      558            600        -2
## #  with 336,766 more rows

# remove particular columns
flights %>% select(-year)

## # A tibble: 336,776 x 18
##    month   day dep_time sched_dep_time dep_delay arr_time sched_arr_time
##    <int> <int>    <int>          <int>     <dbl>    <int>          <int>
##  1     1     1      517            515         2      830            819
##  2     1     1      533            529         4      850            830
##  3     1     1      542            540         2      923            850
##  4     1     1      544            545        -1     1004           1022
##  5     1     1      554            600        -6      812            837
##  6     1     1      554            558        -4      740            728
##  7     1     1      555            600        -5      913            854
##  8     1     1      557            600        -3      709            723
##  9     1     1      557            600        -3      838            846
## 10     1     1      558            600        -2      753            745
## #  with 336,766 more rows, and 11 more variables: arr_delay <dbl>,
## #   carrier <chr>, flight <int>, tailnum <chr>, origin <chr>, dest <chr>,
## #   air_time <dbl>, distance <dbl>, hour <dbl>, minute <dbl>, time_hour <dttm>

# all the columns do not contain dep
flights %>% select(-contains("dep"))

## # A tibble: 336,776 x 16
##     year month   day arr_time sched_arr_time arr_delay carrier flight tailnum
##    <int> <int> <int>    <int>          <int>     <dbl> <chr>    <int> <chr>  
##  1  2013     1     1      830            819        11 UA        1545 N14228 
##  2  2013     1     1      850            830        20 UA        1714 N24211 
##  3  2013     1     1      923            850        33 AA        1141 N619AA 
##  4  2013     1     1     1004           1022       -18 B6         725 N804JB 
##  5  2013     1     1      812            837       -25 DL         461 N668DN 
##  6  2013     1     1      740            728        12 UA        1696 N39463 
##  7  2013     1     1      913            854        19 B6         507 N516JB 
##  8  2013     1     1      709            723       -14 EV        5708 N829AS 
##  9  2013     1     1      838            846        -8 B6          79 N593JB 
## 10  2013     1     1      753            745         8 AA         301 N3ALAA 
## #  with 336,766 more rows, and 7 more variables: origin <chr>, dest <chr>,
## #   air_time <dbl>, distance <dbl>, hour <dbl>, minute <dbl>, time_hour <dttm>

# using regular expression (later of the course)
flights %>% select(matches("^(arr|dep)_"))

## # A tibble: 336,776 x 4
##    dep_time dep_delay arr_time arr_delay
##       <int>     <dbl>    <int>     <dbl>
##  1      517         2      830        11
##  2      533         4      850        20
##  3      542         2      923        33
##  4      544        -1     1004       -18
##  5      554        -6      812       -25
##  6      554        -4      740        12
##  7      555        -5      913        19
##  8      557        -3      709       -14
##  9      557        -3      838        -8
## 10      558        -2      753         8
## #  with 336,766 more rows
…
flights %>% rename(y = year)

## # A tibble: 336,776 x 19
##        y month   day dep_time sched_dep_time dep_delay arr_time sched_arr_time
##    <int> <int> <int>    <int>          <int>     <dbl>    <int>          <int>
##  1  2013     1     1      517            515         2      830            819
##  2  2013     1     1      533            529         4      850            830
##  3  2013     1     1      542            540         2      923            850
##  4  2013     1     1      544            545        -1     1004           1022
##  5  2013     1     1      554            600        -6      812            837
##  6  2013     1     1      554            558        -4      740            728
##  7  2013     1     1      555            600        -5      913            854
##  8  2013     1     1      557            600        -3      709            723
##  9  2013     1     1      557            600        -3      838            846
## 10  2013     1     1      558            600        -2      753            745
## #  with 336,766 more rows, and 11 more variables: arr_delay <dbl>,
## #   carrier <chr>, flight <int>, tailnum <chr>, origin <chr>, dest <chr>,
## #   air_time <dbl>, distance <dbl>, hour <dbl>, minute <dbl>, time_hour <dttm>

# of course, we could select everything
flights %>% select(everything())

## # A tibble: 336,776 x 19
##     year month   day dep_time sched_dep_time dep_delay arr_time sched_arr_time
##    <int> <int> <int>    <int>          <int>     <dbl>    <int>          <int>
##  1  2013     1     1      517            515         2      830            819
##  2  2013     1     1      533            529         4      850            830
##  3  2013     1     1      542            540         2      923            850
##  4  2013     1     1      544            545        -1     1004           1022
##  5  2013     1     1      554            600        -6      812            837
##  6  2013     1     1      554            558        -4      740            728
##  7  2013     1     1      555            600        -5      913            854
##  8  2013     1     1      557            600        -3      709            723
##  9  2013     1     1      557            600        -3      838            846
## 10  2013     1     1      558            600        -2      753            745
## #  with 336,766 more rows, and 11 more variables: arr_delay <dbl>,
## #   carrier <chr>, flight <int>, tailnum <chr>, origin <chr>, dest <chr>,
## #   air_time <dbl>, distance <dbl>, hour <dbl>, minute <dbl>, time_hour <dttm>

# move air_time to the front
flights %>% select(air_time, everything())

## # A tibble: 336,776 x 19
##    air_time  year month   day dep_time sched_dep_time dep_delay arr_time
##       <dbl> <int> <int> <int>    <int>          <int>     <dbl>    <int>
##  1      227  2013     1     1      517            515         2      830
##  2      227  2013     1     1      533            529         4      850
##  3      160  2013     1     1      542            540         2      923
##  4      183  2013     1     1      544            545        -1     1004
##  5      116  2013     1     1      554            600        -6      812
##  6      150  2013     1     1      554            558        -4      740
##  7      158  2013     1     1      555            600        -5      913
##  8       53  2013     1     1      557            600        -3      709
##  9      140  2013     1     1      557            600        -3      838
## 10      138  2013     1     1      558            600        -2      753
## #  with 336,766 more rows, and 11 more variables: sched_arr_time <int>,
## #   arr_delay <dbl>, carrier <chr>, flight <int>, tailnum <chr>, origin <chr>,
## #   dest <chr>, distance <dbl>, hour <dbl>, minute <dbl>, time_hour <dttm>

filter: picks cases based on their values

# flights[, flights$origin == "JFK"]
# subset(flights, origin == "JFK")
flights %>% filter(origin == "JFK")

## # A tibble: 111,279 x 19
##     year month   day dep_time sched_dep_time dep_delay arr_time sched_arr_time
##    <int> <int> <int>    <int>          <int>     <dbl>    <int>          <int>
##  1  2013     1     1      542            540         2      923            850
##  2  2013     1     1      544            545        -1     1004           1022
##  3  2013     1     1      557            600        -3      838            846
##  4  2013     1     1      558            600        -2      849            851
##  5  2013     1     1      558            600        -2      853            856
##  6  2013     1     1      558            600        -2      924            917
##  7  2013     1     1      559            559         0      702            706
##  8  2013     1     1      606            610        -4      837            845
##  9  2013     1     1      611            600        11      945            931
## 10  2013     1     1      613            610         3      925            921
## #  with 111,269 more rows, and 11 more variables: arr_delay <dbl>,
## #   carrier <chr>, flight <int>, tailnum <chr>, origin <chr>, dest <chr>,
## #   air_time <dbl>, distance <dbl>, hour <dbl>, minute <dbl>, time_hour <dttm>

flights %>% filter(distance > 1000)

## # A tibble: 147,105 x 19
##     year month   day dep_time sched_dep_time dep_delay arr_time sched_arr_time
##    <int> <int> <int>    <int>          <int>     <dbl>    <int>          <int>
##  1  2013     1     1      517            515         2      830            819
##  2  2013     1     1      533            529         4      850            830
##  3  2013     1     1      542            540         2      923            850
##  4  2013     1     1      544            545        -1     1004           1022
##  5  2013     1     1      555            600        -5      913            854
##  6  2013     1     1      558            600        -2      849            851
##  7  2013     1     1      558            600        -2      853            856
##  8  2013     1     1      558            600        -2      924            917
##  9  2013     1     1      558            600        -2      923            937
## 10  2013     1     1      559            600        -1      941            910
## #  with 147,095 more rows, and 11 more variables: arr_delay <dbl>,
## #   carrier <chr>, flight <int>, tailnum <chr>, origin <chr>, dest <chr>,
## #   air_time <dbl>, distance <dbl>, hour <dbl>, minute <dbl>, time_hour <dttm>

# note that we are using a single `&` instead of `&&` as in base R
flights %>% filter(origin == "JFK" & distance > 1000)

## # A tibble: 62,071 x 19
##     year month   day dep_time sched_dep_time dep_delay arr_time sched_arr_time
##    <int> <int> <int>    <int>          <int>     <dbl>    <int>          <int>
##  1  2013     1     1      542            540         2      923            850
##  2  2013     1     1      544            545        -1     1004           1022
##  3  2013     1     1      558            600        -2      849            851
##  4  2013     1     1      558            600        -2      853            856
##  5  2013     1     1      558            600        -2      924            917
##  6  2013     1     1      611            600        11      945            931
##  7  2013     1     1      613            610         3      925            921
##  8  2013     1     1      615            615         0     1039           1100
##  9  2013     1     1      627            630        -3     1018           1018
## 10  2013     1     1      628            630        -2     1137           1140
## #  with 62,061 more rows, and 11 more variables: arr_delay <dbl>,
## #   carrier <chr>, flight <int>, tailnum <chr>, origin <chr>, dest <chr>,
## #   air_time <dbl>, distance <dbl>, hour <dbl>, minute <dbl>, time_hour <dttm>

flights %>% filter(origin == "JFK", distance > 1000)

## # A tibble: 62,071 x 19
##     year month   day dep_time sched_dep_time dep_delay arr_time sched_arr_time
##    <int> <int> <int>    <int>          <int>     <dbl>    <int>          <int>
##  1  2013     1     1      542            540         2      923            850
##  2  2013     1     1      544            545        -1     1004           1022
##  3  2013     1     1      558            600        -2      849            851
##  4  2013     1     1      558            600        -2      853            856
##  5  2013     1     1      558            600        -2      924            917
##  6  2013     1     1      611            600        11      945            931
##  7  2013     1     1      613            610         3      925            921
##  8  2013     1     1      615            615         0     1039           1100
##  9  2013     1     1      627            630        -3     1018           1018
## 10  2013     1     1      628            630        -2     1137           1140
## #  with 62,061 more rows, and 11 more variables: arr_delay <dbl>,
## #   carrier <chr>, flight <int>, tailnum <chr>, origin <chr>, dest <chr>,
## #   air_time <dbl>, distance <dbl>, hour <dbl>, minute <dbl>, time_hour <dttm>

flights %>% filter(distance < 500 | distance > 1000)

## # A tibble: 227,322 x 19
##     year month   day dep_time sched_dep_time dep_delay arr_time sched_arr_time
##    <int> <int> <int>    <int>          <int>     <dbl>    <int>          <int>
##  1  2013     1     1      517            515         2      830            819
##  2  2013     1     1      533            529         4      850            830
##  3  2013     1     1      542            540         2      923            850
##  4  2013     1     1      544            545        -1     1004           1022
##  5  2013     1     1      555            600        -5      913            854
##  6  2013     1     1      557            600        -3      709            723
##  7  2013     1     1      558            600        -2      849            851
##  8  2013     1     1      558            600        -2      853            856
##  9  2013     1     1      558            600        -2      924            917
## 10  2013     1     1      558            600        -2      923            937
## #  with 227,312 more rows, and 11 more variables: arr_delay <dbl>,
## #   carrier <chr>, flight <int>, tailnum <chr>, origin <chr>, dest <chr>,
## #   air_time <dbl>, distance <dbl>, hour <dbl>, minute <dbl>, time_hour <dttm>
…
